%!PS-Adobe-3.0 EPSF-3.0
%%Creator: (MATLAB, The Mathworks, Inc. Version 9.10.0.1602886 \(R2021a\). Operating System: Mac OS X)
%%Title: (/Users/shaimeg/src/isenkf/reports/internal /Report_20/L63pontryagin.eps)
%%CreationDate: 2023-06-05T10:54:08
%%Pages: (atend)
%%BoundingBox:     0     0   560   420
%%LanguageLevel: 3
%%EndComments
%%BeginProlog
%%BeginResource: procset (Apache XML Graphics Std ProcSet) 1.2 0
%%Version: 1.2 0
%%Copyright: (Copyright 2001-2003,2010 The Apache Software Foundation. License terms: http://www.apache.org/licenses/LICENSE-2.0)
/bd{bind def}bind def
/ld{load def}bd
/GR/grestore ld
/GS/gsave ld
/RM/rmoveto ld
/C/curveto ld
/t/show ld
/L/lineto ld
/ML/setmiterlimit ld
/CT/concat ld
/f/fill ld
/N/newpath ld
/S/stroke ld
/CC/setcmykcolor ld
/A/ashow ld
/cp/closepath ld
/RC/setrgbcolor ld
/LJ/setlinejoin ld
/GC/setgray ld
/LW/setlinewidth ld
/M/moveto ld
/re {4 2 roll M
1 index 0 rlineto
0 exch rlineto
neg 0 rlineto
cp } bd
/_ctm matrix def
/_tm matrix def
/BT { _ctm currentmatrix pop matrix _tm copy pop 0 0 moveto } bd
/ET { _ctm setmatrix } bd
/iTm { _ctm setmatrix _tm concat } bd
/Tm { _tm astore pop iTm 0 0 moveto } bd
/ux 0.0 def
/uy 0.0 def
/F {
  /Tp exch def
  /Tf exch def
  Tf findfont Tp scalefont setfont
  /cf Tf def  /cs Tp def
} bd
/ULS {currentpoint /uy exch def /ux exch def} bd
/ULE {
  /Tcx currentpoint pop def
  gsave
  newpath
  cf findfont cs scalefont dup
  /FontMatrix get 0 get /Ts exch def /FontInfo get dup
  /UnderlinePosition get Ts mul /To exch def
  /UnderlineThickness get Ts mul /Tt exch def
  ux uy To add moveto  Tcx uy To add lineto
  Tt setlinewidth stroke
  grestore
} bd
/OLE {
  /Tcx currentpoint pop def
  gsave
  newpath
  cf findfont cs scalefont dup
  /FontMatrix get 0 get /Ts exch def /FontInfo get dup
  /UnderlinePosition get Ts mul /To exch def
  /UnderlineThickness get Ts mul /Tt exch def
  ux uy To add cs add moveto Tcx uy To add cs add lineto
  Tt setlinewidth stroke
  grestore
} bd
/SOE {
  /Tcx currentpoint pop def
  gsave
  newpath
  cf findfont cs scalefont dup
  /FontMatrix get 0 get /Ts exch def /FontInfo get dup
  /UnderlinePosition get Ts mul /To exch def
  /UnderlineThickness get Ts mul /Tt exch def
  ux uy To add cs 10 mul 26 idiv add moveto Tcx uy To add cs 10 mul 26 idiv add lineto
  Tt setlinewidth stroke
  grestore
} bd
/QT {
/Y22 exch store
/X22 exch store
/Y21 exch store
/X21 exch store
currentpoint
/Y21 load 2 mul add 3 div exch
/X21 load 2 mul add 3 div exch
/X21 load 2 mul /X22 load add 3 div
/Y21 load 2 mul /Y22 load add 3 div
/X22 load /Y22 load curveto
} bd
/SSPD {
dup length /d exch dict def
{
/v exch def
/k exch def
currentpagedevice k known {
/cpdv currentpagedevice k get def
v cpdv ne {
/upd false def
/nullv v type /nulltype eq def
/nullcpdv cpdv type /nulltype eq def
nullv nullcpdv or
{
/upd true def
} {
/sametype v type cpdv type eq def
sametype {
v type /arraytype eq {
/vlen v length def
/cpdvlen cpdv length def
vlen cpdvlen eq {
0 1 vlen 1 sub {
/i exch def
/obj v i get def
/cpdobj cpdv i get def
obj cpdobj ne {
/upd true def
exit
} if
} for
} {
/upd true def
} ifelse
} {
v type /dicttype eq {
v {
/dv exch def
/dk exch def
/cpddv cpdv dk get def
dv cpddv ne {
/upd true def
exit
} if
} forall
} {
/upd true def
} ifelse
} ifelse
} if
} ifelse
upd true eq {
d k v put
} if
} if
} if
} forall
d length 0 gt {
d setpagedevice
} if
} bd
/RE { % /NewFontName [NewEncodingArray] /FontName RE -
  findfont dup length dict begin
  {
    1 index /FID ne
    {def} {pop pop} ifelse
  } forall
  /Encoding exch def
  /FontName 1 index def
  currentdict definefont pop
  end
} bind def
%%EndResource
%%BeginResource: procset (Apache XML Graphics EPS ProcSet) 1.0 0
%%Version: 1.0 0
%%Copyright: (Copyright 2002-2003 The Apache Software Foundation. License terms: http://www.apache.org/licenses/LICENSE-2.0)
/BeginEPSF { %def
/b4_Inc_state save def         % Save state for cleanup
/dict_count countdictstack def % Count objects on dict stack
/op_count count 1 sub def      % Count objects on operand stack
userdict begin                 % Push userdict on dict stack
/showpage { } def              % Redefine showpage, { } = null proc
0 setgray 0 setlinecap         % Prepare graphics state
1 setlinewidth 0 setlinejoin
10 setmiterlimit [ ] 0 setdash newpath
/languagelevel where           % If level not equal to 1 then
{pop languagelevel             % set strokeadjust and
1 ne                           % overprint to their defaults.
{false setstrokeadjust false setoverprint
} if
} if
} bd
/EndEPSF { %def
count op_count sub {pop} repeat            % Clean up stacks
countdictstack dict_count sub {end} repeat
b4_Inc_state restore
} bd
%%EndResource
%FOPBeginFontDict
%%IncludeResource: font Courier-Oblique
%%IncludeResource: font Courier-BoldOblique
%%IncludeResource: font Courier-Bold
%%IncludeResource: font ZapfDingbats
%%IncludeResource: font Symbol
%%IncludeResource: font Helvetica
%%IncludeResource: font Helvetica-Oblique
%%IncludeResource: font Helvetica-Bold
%%IncludeResource: font Helvetica-BoldOblique
%%IncludeResource: font Times-Roman
%%IncludeResource: font Times-Italic
%%IncludeResource: font Times-Bold
%%IncludeResource: font Times-BoldItalic
%%IncludeResource: font Courier
%FOPEndFontDict
%%BeginResource: encoding WinAnsiEncoding
/WinAnsiEncoding [
/.notdef /.notdef /.notdef /.notdef /.notdef
/.notdef /.notdef /.notdef /.notdef /.notdef
/.notdef /.notdef /.notdef /.notdef /.notdef
/.notdef /.notdef /.notdef /.notdef /.notdef
/.notdef /.notdef /.notdef /.notdef /.notdef
/.notdef /.notdef /.notdef /.notdef /.notdef
/.notdef /.notdef /space /exclam /quotedbl
/numbersign /dollar /percent /ampersand /quotesingle
/parenleft /parenright /asterisk /plus /comma
/hyphen /period /slash /zero /one
/two /three /four /five /six
/seven /eight /nine /colon /semicolon
/less /equal /greater /question /at
/A /B /C /D /E
/F /G /H /I /J
/K /L /M /N /O
/P /Q /R /S /T
/U /V /W /X /Y
/Z /bracketleft /backslash /bracketright /asciicircum
/underscore /quoteleft /a /b /c
/d /e /f /g /h
/i /j /k /l /m
/n /o /p /q /r
/s /t /u /v /w
/x /y /z /braceleft /bar
/braceright /asciitilde /bullet /Euro /bullet
/quotesinglbase /florin /quotedblbase /ellipsis /dagger
/daggerdbl /circumflex /perthousand /Scaron /guilsinglleft
/OE /bullet /Zcaron /bullet /bullet
/quoteleft /quoteright /quotedblleft /quotedblright /bullet
/endash /emdash /asciitilde /trademark /scaron
/guilsinglright /oe /bullet /zcaron /Ydieresis
/space /exclamdown /cent /sterling /currency
/yen /brokenbar /section /dieresis /copyright
/ordfeminine /guillemotleft /logicalnot /sfthyphen /registered
/macron /degree /plusminus /twosuperior /threesuperior
/acute /mu /paragraph /middot /cedilla
/onesuperior /ordmasculine /guillemotright /onequarter /onehalf
/threequarters /questiondown /Agrave /Aacute /Acircumflex
/Atilde /Adieresis /Aring /AE /Ccedilla
/Egrave /Eacute /Ecircumflex /Edieresis /Igrave
/Iacute /Icircumflex /Idieresis /Eth /Ntilde
/Ograve /Oacute /Ocircumflex /Otilde /Odieresis
/multiply /Oslash /Ugrave /Uacute /Ucircumflex
/Udieresis /Yacute /Thorn /germandbls /agrave
/aacute /acircumflex /atilde /adieresis /aring
/ae /ccedilla /egrave /eacute /ecircumflex
/edieresis /igrave /iacute /icircumflex /idieresis
/eth /ntilde /ograve /oacute /ocircumflex
/otilde /odieresis /divide /oslash /ugrave
/uacute /ucircumflex /udieresis /yacute /thorn
/ydieresis
] def
%%EndResource
%FOPBeginFontReencode
/Courier-Oblique findfont
dup length dict begin
  {1 index /FID ne {def} {pop pop} ifelse} forall
  /Encoding WinAnsiEncoding def
  currentdict
end
/Courier-Oblique exch definefont pop
/Courier-BoldOblique findfont
dup length dict begin
  {1 index /FID ne {def} {pop pop} ifelse} forall
  /Encoding WinAnsiEncoding def
  currentdict
end
/Courier-BoldOblique exch definefont pop
/Courier-Bold findfont
dup length dict begin
  {1 index /FID ne {def} {pop pop} ifelse} forall
  /Encoding WinAnsiEncoding def
  currentdict
end
/Courier-Bold exch definefont pop
/Helvetica findfont
dup length dict begin
  {1 index /FID ne {def} {pop pop} ifelse} forall
  /Encoding WinAnsiEncoding def
  currentdict
end
/Helvetica exch definefont pop
/Helvetica-Oblique findfont
dup length dict begin
  {1 index /FID ne {def} {pop pop} ifelse} forall
  /Encoding WinAnsiEncoding def
  currentdict
end
/Helvetica-Oblique exch definefont pop
/Helvetica-Bold findfont
dup length dict begin
  {1 index /FID ne {def} {pop pop} ifelse} forall
  /Encoding WinAnsiEncoding def
  currentdict
end
/Helvetica-Bold exch definefont pop
/Helvetica-BoldOblique findfont
dup length dict begin
  {1 index /FID ne {def} {pop pop} ifelse} forall
  /Encoding WinAnsiEncoding def
  currentdict
end
/Helvetica-BoldOblique exch definefont pop
/Times-Roman findfont
dup length dict begin
  {1 index /FID ne {def} {pop pop} ifelse} forall
  /Encoding WinAnsiEncoding def
  currentdict
end
/Times-Roman exch definefont pop
/Times-Italic findfont
dup length dict begin
  {1 index /FID ne {def} {pop pop} ifelse} forall
  /Encoding WinAnsiEncoding def
  currentdict
end
/Times-Italic exch definefont pop
/Times-Bold findfont
dup length dict begin
  {1 index /FID ne {def} {pop pop} ifelse} forall
  /Encoding WinAnsiEncoding def
  currentdict
end
/Times-Bold exch definefont pop
/Times-BoldItalic findfont
dup length dict begin
  {1 index /FID ne {def} {pop pop} ifelse} forall
  /Encoding WinAnsiEncoding def
  currentdict
end
/Times-BoldItalic exch definefont pop
/Courier findfont
dup length dict begin
  {1 index /FID ne {def} {pop pop} ifelse} forall
  /Encoding WinAnsiEncoding def
  currentdict
end
/Courier exch definefont pop
%FOPEndFontReencode
%%EndProlog
%%Page: 1 1
%%PageBoundingBox: 0 0 560 420
%%BeginPageSetup
[1 0 0 -1 0 420] CT
%%EndPageSetup
GS
1 GC
N
0 0 560 420 re
f
GR
GS
1 GC
N
0 0 560 420 re
f
GR
GS
1 GC
N
73 374 M
507 374 L
507 31.5 L
73 31.5 L
cp
f
GR
GS
0.149 GC
2 setlinecap
1 LJ
0.5 LW
N
73 374 M
507 374 L
S
GR
GS
0.149 GC
2 setlinecap
1 LJ
0.5 LW
N
73 31.5 M
507 31.5 L
S
GR
GS
0.149 GC
2 setlinecap
1 LJ
0.5 LW
N
73 374 M
73 369.66 L
S
GR
GS
0.149 GC
2 setlinecap
1 LJ
0.5 LW
N
159.8 374 M
159.8 369.66 L
S
GR
GS
0.149 GC
2 setlinecap
1 LJ
0.5 LW
N
246.6 374 M
246.6 369.66 L
S
GR
GS
0.149 GC
2 setlinecap
1 LJ
0.5 LW
N
333.4 374 M
333.4 369.66 L
S
GR
GS
0.149 GC
2 setlinecap
1 LJ
0.5 LW
N
420.2 374 M
420.2 369.66 L
S
GR
GS
0.149 GC
2 setlinecap
1 LJ
0.5 LW
N
507 374 M
507 369.66 L
S
GR
GS
0.149 GC
2 setlinecap
1 LJ
0.5 LW
N
73 31.5 M
73 35.84 L
S
GR
GS
0.149 GC
2 setlinecap
1 LJ
0.5 LW
N
159.8 31.5 M
159.8 35.84 L
S
GR
GS
0.149 GC
2 setlinecap
1 LJ
0.5 LW
N
246.6 31.5 M
246.6 35.84 L
S
GR
GS
0.149 GC
2 setlinecap
1 LJ
0.5 LW
N
333.4 31.5 M
333.4 35.84 L
S
GR
GS
0.149 GC
2 setlinecap
1 LJ
0.5 LW
N
420.2 31.5 M
420.2 35.84 L
S
GR
GS
0.149 GC
2 setlinecap
1 LJ
0.5 LW
N
507 31.5 M
507 35.84 L
S
GR
GS
[1 0 0 1 73 379] CT
0.149 GC
/Helvetica 15 F
GS
[1 0 0 1 0 0] CT
-4.5 15 moveto 
1 -1 scale
(0) t 
GR
GR
GS
[1 0 0 1 159.8 379] CT
0.149 GC
/Helvetica 15 F
GS
[1 0 0 1 0 0] CT
-10.5 15 moveto 
1 -1 scale
(0.2) t 
GR
GR
GS
[1 0 0 1 246.60001 379] CT
0.149 GC
/Helvetica 15 F
GS
[1 0 0 1 0 0] CT
-10.5 15 moveto 
1 -1 scale
(0.4) t 
GR
GR
GS
[1 0 0 1 333.40002 379] CT
0.149 GC
/Helvetica 15 F
GS
[1 0 0 1 0 0] CT
-10.5 15 moveto 
1 -1 scale
(0.6) t 
GR
GR
GS
[1 0 0 1 420.20001 379] CT
0.149 GC
/Helvetica 15 F
GS
[1 0 0 1 0 0] CT
-10.5 15 moveto 
1 -1 scale
(0.8) t 
GR
GR
GS
[1 0 0 1 507 379] CT
0.149 GC
/Helvetica 15 F
GS
[1 0 0 1 0 0] CT
-4.5 15 moveto 
1 -1 scale
(1) t 
GR
GR
GS
[1 0 0 1 290.00021 398] CT
0.149 GC
/Helvetica 18 F
GS
[1 0 0 1 0 0] CT
-3 18 moveto 
1 -1 scale
(t) t 
GR
GR
GS
0.149 GC
2 setlinecap
1 LJ
0.5 LW
N
73 374 M
73 31.5 L
S
GR
GS
0.149 GC
2 setlinecap
1 LJ
0.5 LW
N
507 374 M
507 31.5 L
S
GR
GS
0.149 GC
2 setlinecap
1 LJ
0.5 LW
N
73 374 M
77.34 374 L
S
GR
GS
0.149 GC
2 setlinecap
1 LJ
0.5 LW
N
73 331.188 M
77.34 331.188 L
S
GR
GS
0.149 GC
2 setlinecap
1 LJ
0.5 LW
N
73 288.375 M
77.34 288.375 L
S
GR
GS
0.149 GC
2 setlinecap
1 LJ
0.5 LW
N
73 245.563 M
77.34 245.563 L
S
GR
GS
0.149 GC
2 setlinecap
1 LJ
0.5 LW
N
73 202.75 M
77.34 202.75 L
S
GR
GS
0.149 GC
2 setlinecap
1 LJ
0.5 LW
N
73 159.938 M
77.34 159.938 L
S
GR
GS
0.149 GC
2 setlinecap
1 LJ
0.5 LW
N
73 117.125 M
77.34 117.125 L
S
GR
GS
0.149 GC
2 setlinecap
1 LJ
0.5 LW
N
73 74.313 M
77.34 74.313 L
S
GR
GS
0.149 GC
2 setlinecap
1 LJ
0.5 LW
N
73 31.5 M
77.34 31.5 L
S
GR
GS
0.149 GC
2 setlinecap
1 LJ
0.5 LW
N
507 374 M
502.66 374 L
S
GR
GS
0.149 GC
2 setlinecap
1 LJ
0.5 LW
N
507 331.188 M
502.66 331.188 L
S
GR
GS
0.149 GC
2 setlinecap
1 LJ
0.5 LW
N
507 288.375 M
502.66 288.375 L
S
GR
GS
0.149 GC
2 setlinecap
1 LJ
0.5 LW
N
507 245.563 M
502.66 245.563 L
S
GR
GS
0.149 GC
2 setlinecap
1 LJ
0.5 LW
N
507 202.75 M
502.66 202.75 L
S
GR
GS
0.149 GC
2 setlinecap
1 LJ
0.5 LW
N
507 159.938 M
502.66 159.938 L
S
GR
GS
0.149 GC
2 setlinecap
1 LJ
0.5 LW
N
507 117.125 M
502.66 117.125 L
S
GR
GS
0.149 GC
2 setlinecap
1 LJ
0.5 LW
N
507 74.313 M
502.66 74.313 L
S
GR
GS
0.149 GC
2 setlinecap
1 LJ
0.5 LW
N
507 31.5 M
502.66 31.5 L
S
GR
GS
[1 0 0 1 68 374] CT
0.149 GC
/Helvetica 15 F
GS
[1 0 0 1 0 0] CT
-9 5.5 moveto 
1 -1 scale
(0) t 
GR
GR
GS
[1 0 0 1 68 331.1875] CT
0.149 GC
/Helvetica 15 F
GS
[1 0 0 1 0 0] CT
-9 5.5 moveto 
1 -1 scale
(1) t 
GR
GR
GS
[1 0 0 1 68 288.375] CT
0.149 GC
/Helvetica 15 F
GS
[1 0 0 1 0 0] CT
-9 5.5 moveto 
1 -1 scale
(2) t 
GR
GR
GS
[1 0 0 1 68 245.5625] CT
0.149 GC
/Helvetica 15 F
GS
[1 0 0 1 0 0] CT
-9 5.5 moveto 
1 -1 scale
(3) t 
GR
GR
GS
[1 0 0 1 68 202.75] CT
0.149 GC
/Helvetica 15 F
GS
[1 0 0 1 0 0] CT
-9 5.5 moveto 
1 -1 scale
(4) t 
GR
GR
GS
[1 0 0 1 68 159.9375] CT
0.149 GC
/Helvetica 15 F
GS
[1 0 0 1 0 0] CT
-9 5.5 moveto 
1 -1 scale
(5) t 
GR
GR
GS
[1 0 0 1 68 117.125] CT
0.149 GC
/Helvetica 15 F
GS
[1 0 0 1 0 0] CT
-9 5.5 moveto 
1 -1 scale
(6) t 
GR
GR
GS
[1 0 0 1 68 74.3125] CT
0.149 GC
/Helvetica 15 F
GS
[1 0 0 1 0 0] CT
-9 5.5 moveto 
1 -1 scale
(7) t 
GR
GR
GS
[1 0 0 1 68 31.5] CT
0.149 GC
/Helvetica 15 F
GS
[1 0 0 1 0 0] CT
-9 5.5 moveto 
1 -1 scale
(8) t 
GR
GR
GS
[0 -1 1 0 56.5 202.74983] CT
0.149 GC
/Helvetica 18 F
GS
[1 0 0 1 0 0] CT
-28 -4 moveto 
1 -1 scale
(control) t 
GR
GR
GS
[1 0 0 1 290.00027 29.43751] CT
/Helvetica-Bold 16.5 F
GS
[1 0 0 1 0 0] CT
-46 -4 moveto 
1 -1 scale
(L63: K=13.7) t 
GR
GR
GS
0 0.447 0.741 RC
1 LJ
4 LW
N
73 373.985 M
73.434 373.985 L
73.868 373.985 L
74.302 373.985 L
74.736 373.985 L
75.17 373.985 L
75.604 373.984 L
76.038 373.984 L
76.472 373.984 L
76.906 373.984 L
77.34 373.984 L
77.774 373.984 L
78.208 373.983 L
78.642 373.983 L
79.076 373.983 L
79.51 373.983 L
79.944 373.983 L
80.378 373.983 L
80.812 373.982 L
81.246 373.982 L
81.68 373.982 L
82.114 373.982 L
82.548 373.982 L
82.982 373.981 L
83.416 373.981 L
83.85 373.981 L
84.284 373.981 L
84.718 373.981 L
85.152 373.981 L
85.586 373.98 L
86.02 373.98 L
86.454 373.98 L
86.888 373.98 L
87.322 373.98 L
87.756 373.979 L
88.19 373.979 L
88.624 373.979 L
89.058 373.979 L
89.492 373.978 L
89.926 373.978 L
90.36 373.978 L
90.794 373.978 L
91.228 373.978 L
91.662 373.977 L
92.096 373.977 L
92.53 373.977 L
92.964 373.977 L
93.398 373.976 L
93.832 373.976 L
94.266 373.976 L
94.7 373.976 L
95.134 373.975 L
95.568 373.975 L
96.002 373.975 L
96.436 373.975 L
96.87 373.974 L
97.304 373.974 L
97.738 373.974 L
98.172 373.974 L
98.606 373.973 L
99.04 373.973 L
99.474 373.973 L
99.908 373.973 L
100.342 373.972 L
100.776 373.972 L
101.21 373.972 L
101.644 373.972 L
102.078 373.971 L
102.512 373.971 L
102.946 373.971 L
103.38 373.97 L
103.814 373.97 L
104.248 373.97 L
104.682 373.969 L
105.116 373.969 L
105.55 373.969 L
105.984 373.969 L
106.418 373.968 L
106.852 373.968 L
107.286 373.968 L
107.72 373.967 L
108.154 373.967 L
108.588 373.967 L
109.022 373.966 L
109.456 373.966 L
109.89 373.966 L
110.324 373.965 L
110.758 373.965 L
111.192 373.965 L
111.626 373.964 L
112.06 373.964 L
112.494 373.963 L
112.928 373.963 L
113.362 373.963 L
113.796 373.962 L
114.23 373.962 L
114.664 373.962 L
115.098 373.961 L
115.532 373.961 L
115.966 373.96 L
116.4 373.96 L
116.834 373.96 L
117.268 373.959 L
117.702 373.959 L
118.136 373.958 L
118.57 373.958 L
119.004 373.957 L
119.438 373.957 L
119.872 373.957 L
120.306 373.956 L
120.74 373.956 L
121.174 373.955 L
121.608 373.955 L
122.042 373.954 L
122.476 373.954 L
122.91 373.953 L
123.344 373.953 L
123.778 373.953 L
124.212 373.952 L
124.646 373.952 L
125.08 373.951 L
125.514 373.951 L
125.948 373.95 L
126.382 373.95 L
126.816 373.949 L
127.25 373.949 L
127.684 373.948 L
128.118 373.948 L
128.552 373.947 L
128.986 373.947 L
129.42 373.946 L
129.854 373.945 L
130.288 373.945 L
130.722 373.944 L
131.156 373.944 L
131.59 373.943 L
132.024 373.943 L
132.458 373.942 L
132.892 373.941 L
133.326 373.941 L
133.76 373.94 L
134.194 373.94 L
134.628 373.939 L
135.062 373.938 L
135.496 373.938 L
135.93 373.937 L
136.364 373.937 L
136.798 373.936 L
137.232 373.935 L
137.666 373.935 L
138.1 373.934 L
138.534 373.933 L
138.968 373.933 L
139.402 373.932 L
139.836 373.931 L
140.27 373.931 L
140.704 373.93 L
141.138 373.929 L
141.572 373.929 L
142.006 373.928 L
142.44 373.927 L
142.874 373.926 L
143.308 373.926 L
143.742 373.925 L
144.176 373.924 L
144.61 373.923 L
145.044 373.923 L
145.478 373.922 L
145.912 373.921 L
146.346 373.92 L
146.78 373.919 L
147.214 373.919 L
147.648 373.918 L
148.082 373.917 L
148.516 373.916 L
148.95 373.915 L
149.384 373.914 L
149.818 373.914 L
150.252 373.913 L
150.686 373.912 L
151.12 373.911 L
151.554 373.91 L
151.988 373.909 L
152.422 373.908 L
152.856 373.907 L
153.29 373.906 L
153.724 373.905 L
154.158 373.904 L
154.592 373.904 L
155.026 373.903 L
155.46 373.902 L
155.894 373.901 L
156.328 373.9 L
156.762 373.899 L
157.196 373.898 L
157.63 373.897 L
158.064 373.895 L
158.498 373.894 L
158.932 373.893 L
159.366 373.892 L
159.8 373.891 L
160.234 373.89 L
160.668 373.889 L
161.102 373.888 L
161.536 373.887 L
161.97 373.886 L
162.404 373.884 L
162.838 373.883 L
163.272 373.882 L
163.706 373.881 L
164.14 373.88 L
164.574 373.879 L
165.008 373.877 L
165.442 373.876 L
165.876 373.875 L
166.31 373.874 L
166.744 373.872 L
167.178 373.871 L
167.612 373.87 L
168.046 373.868 L
168.48 373.867 L
168.914 373.866 L
169.348 373.864 L
169.782 373.863 L
170.216 373.862 L
170.65 373.86 L
171.084 373.859 L
171.518 373.857 L
171.952 373.856 L
172.386 373.855 L
172.82 373.853 L
173.254 373.852 L
173.688 373.85 L
174.122 373.849 L
174.556 373.847 L
174.99 373.846 L
175.424 373.844 L
175.858 373.842 L
176.292 373.841 L
176.726 373.839 L
177.16 373.838 L
177.594 373.836 L
178.028 373.834 L
178.462 373.833 L
178.896 373.831 L
179.33 373.829 L
179.764 373.828 L
180.198 373.826 L
180.632 373.824 L
181.066 373.822 L
181.5 373.821 L
181.934 373.819 L
182.368 373.817 L
182.802 373.815 L
183.236 373.813 L
183.67 373.811 L
184.104 373.81 L
184.538 373.808 L
184.972 373.806 L
185.406 373.804 L
185.84 373.802 L
186.274 373.8 L
186.708 373.798 L
187.142 373.796 L
187.576 373.794 L
188.01 373.792 L
188.444 373.789 L
188.878 373.787 L
189.312 373.785 L
189.746 373.783 L
190.18 373.781 L
190.614 373.779 L
191.048 373.776 L
191.482 373.774 L
191.916 373.772 L
192.35 373.77 L
192.784 373.767 L
193.218 373.765 L
193.652 373.763 L
194.086 373.76 L
194.52 373.758 L
194.954 373.755 L
195.388 373.753 L
195.822 373.75 L
196.256 373.748 L
196.69 373.745 L
197.124 373.743 L
197.558 373.74 L
197.992 373.738 L
198.426 373.735 L
198.86 373.732 L
199.294 373.73 L
199.728 373.727 L
200.162 373.724 L
200.596 373.721 L
201.03 373.719 L
201.464 373.716 L
201.898 373.713 L
202.332 373.71 L
202.766 373.707 L
203.2 373.704 L
203.634 373.701 L
204.068 373.698 L
204.502 373.695 L
204.936 373.692 L
205.37 373.689 L
205.804 373.686 L
206.238 373.683 L
206.672 373.68 L
207.106 373.676 L
207.54 373.673 L
207.974 373.67 L
208.408 373.667 L
208.842 373.663 L
209.276 373.66 L
209.71 373.656 L
210.144 373.653 L
210.578 373.649 L
211.012 373.646 L
211.446 373.642 L
211.88 373.639 L
212.314 373.635 L
212.748 373.631 L
213.182 373.628 L
213.616 373.624 L
214.05 373.62 L
214.484 373.616 L
214.918 373.613 L
215.352 373.609 L
215.786 373.605 L
216.22 373.601 L
216.654 373.597 L
217.088 373.593 L
217.522 373.589 L
217.956 373.585 L
218.39 373.58 L
218.824 373.576 L
219.258 373.572 L
219.692 373.568 L
220.126 373.563 L
220.56 373.559 L
220.994 373.554 L
221.428 373.55 L
221.862 373.545 L
222.296 373.541 L
222.73 373.536 L
223.164 373.532 L
223.598 373.527 L
224.032 373.522 L
224.466 373.517 L
224.9 373.512 L
225.334 373.508 L
225.768 373.503 L
226.202 373.498 L
226.636 373.492 L
227.07 373.487 L
227.504 373.482 L
227.938 373.477 L
228.372 373.472 L
228.806 373.466 L
229.24 373.461 L
229.674 373.456 L
230.108 373.45 L
230.542 373.445 L
230.976 373.439 L
231.41 373.434 L
231.844 373.428 L
232.278 373.422 L
232.712 373.416 L
233.146 373.41 L
233.58 373.404 L
234.014 373.398 L
234.448 373.392 L
234.882 373.386 L
235.316 373.38 L
235.75 373.374 L
236.184 373.368 L
236.618 373.361 L
237.052 373.355 L
237.486 373.348 L
237.92 373.342 L
238.354 373.335 L
238.788 373.329 L
239.222 373.322 L
239.656 373.315 L
240.09 373.308 L
240.524 373.301 L
240.958 373.294 L
241.392 373.287 L
241.826 373.28 L
242.26 373.273 L
242.694 373.265 L
243.128 373.258 L
243.562 373.25 L
243.996 373.243 L
244.43 373.235 L
244.864 373.228 L
245.298 373.22 L
245.732 373.212 L
246.166 373.204 L
246.6 373.196 L
247.034 373.188 L
247.468 373.18 L
247.902 373.172 L
248.336 373.163 L
248.77 373.155 L
249.204 373.146 L
249.638 373.138 L
250.072 373.129 L
250.506 373.12 L
250.94 373.112 L
251.374 373.103 L
251.808 373.094 L
252.242 373.084 L
252.676 373.075 L
253.11 373.066 L
253.544 373.057 L
253.978 373.047 L
254.412 373.038 L
254.846 373.028 L
255.28 373.018 L
255.714 373.008 L
256.148 372.998 L
256.582 372.988 L
257.016 372.978 L
257.45 372.968 L
257.884 372.957 L
258.318 372.947 L
258.752 372.936 L
259.186 372.926 L
259.62 372.915 L
260.054 372.904 L
260.488 372.893 L
260.922 372.882 L
261.356 372.871 L
261.79 372.859 L
262.224 372.848 L
262.658 372.836 L
263.092 372.824 L
263.526 372.813 L
263.96 372.801 L
264.394 372.789 L
264.828 372.776 L
265.262 372.764 L
265.696 372.752 L
266.13 372.739 L
266.564 372.727 L
266.998 372.714 L
267.432 372.701 L
267.866 372.688 L
268.3 372.675 L
268.734 372.661 L
269.168 372.648 L
269.602 372.634 L
270.036 372.62 L
270.47 372.607 L
270.904 372.593 L
271.338 372.578 L
271.772 372.564 L
272.206 372.55 L
272.64 372.535 L
273.074 372.52 L
273.508 372.506 L
273.942 372.491 L
274.376 372.475 L
274.81 372.46 L
275.244 372.445 L
275.678 372.429 L
276.112 372.413 L
276.546 372.397 L
276.98 372.381 L
277.414 372.365 L
277.848 372.348 L
278.282 372.332 L
278.716 372.315 L
279.15 372.298 L
279.584 372.281 L
280.018 372.264 L
280.452 372.246 L
280.886 372.229 L
281.32 372.211 L
281.754 372.193 L
282.188 372.175 L
282.622 372.156 L
283.056 372.138 L
283.49 372.119 L
283.924 372.1 L
284.358 372.081 L
284.792 372.062 L
285.226 372.042 L
285.66 372.023 L
286.094 372.003 L
286.528 371.983 L
286.962 371.962 L
287.396 371.942 L
287.83 371.921 L
288.264 371.9 L
288.698 371.879 L
289.132 371.858 L
289.566 371.836 L
290 371.815 L
290.434 371.793 L
290.868 371.771 L
291.302 371.748 L
291.736 371.726 L
292.17 371.703 L
292.604 371.68 L
293.038 371.656 L
293.472 371.633 L
293.906 371.609 L
294.34 371.585 L
294.774 371.561 L
295.208 371.536 L
295.642 371.511 L
296.076 371.486 L
296.51 371.461 L
296.944 371.436 L
297.378 371.41 L
297.812 371.384 L
298.246 371.357 L
298.68 371.331 L
299.114 371.304 L
299.548 371.277 L
299.982 371.25 L
300.416 371.222 L
300.85 371.194 L
301.284 371.166 L
301.718 371.137 L
302.152 371.109 L
302.586 371.08 L
303.02 371.05 L
303.454 371.021 L
303.888 370.991 L
304.322 370.96 L
304.756 370.93 L
305.19 370.899 L
305.624 370.868 L
306.058 370.836 L
306.492 370.805 L
306.926 370.772 L
307.36 370.74 L
307.794 370.707 L
308.228 370.674 L
308.662 370.641 L
309.096 370.607 L
309.53 370.573 L
309.964 370.538 L
310.398 370.504 L
310.832 370.468 L
311.266 370.433 L
311.7 370.397 L
312.134 370.361 L
312.568 370.324 L
313.002 370.287 L
313.436 370.25 L
313.87 370.212 L
314.304 370.174 L
314.738 370.136 L
315.172 370.097 L
315.606 370.058 L
316.04 370.018 L
316.474 369.978 L
316.908 369.938 L
317.342 369.897 L
317.776 369.856 L
318.21 369.814 L
318.644 369.772 L
319.078 369.729 L
319.512 369.687 L
319.946 369.643 L
320.38 369.599 L
320.814 369.555 L
321.248 369.511 L
321.682 369.465 L
322.116 369.42 L
322.55 369.374 L
322.984 369.327 L
323.418 369.28 L
323.852 369.233 L
324.286 369.185 L
324.72 369.137 L
325.154 369.088 L
325.588 369.038 L
326.022 368.989 L
326.456 368.938 L
326.89 368.887 L
327.324 368.836 L
327.758 368.784 L
328.192 368.732 L
328.626 368.679 L
329.06 368.625 L
329.494 368.571 L
329.928 368.517 L
330.362 368.461 L
330.796 368.406 L
331.23 368.35 L
331.664 368.293 L
332.098 368.235 L
332.532 368.177 L
332.966 368.119 L
333.4 368.06 L
333.834 368 L
334.268 367.94 L
334.702 367.879 L
335.136 367.817 L
335.57 367.755 L
336.004 367.693 L
336.438 367.629 L
336.872 367.565 L
337.306 367.5 L
337.74 367.435 L
338.174 367.369 L
338.608 367.303 L
339.042 367.235 L
339.476 367.167 L
339.91 367.099 L
340.344 367.029 L
340.778 366.959 L
341.212 366.888 L
341.646 366.817 L
342.08 366.745 L
342.514 366.672 L
342.948 366.598 L
343.382 366.524 L
343.816 366.449 L
344.25 366.373 L
344.684 366.296 L
345.118 366.219 L
345.552 366.14 L
345.986 366.061 L
346.42 365.982 L
346.854 365.901 L
347.288 365.82 L
347.722 365.737 L
348.156 365.654 L
348.59 365.571 L
349.024 365.486 L
349.458 365.4 L
349.892 365.314 L
350.326 365.227 L
350.76 365.138 L
351.194 365.049 L
351.628 364.959 L
352.062 364.868 L
352.496 364.777 L
352.93 364.684 L
353.364 364.59 L
353.798 364.496 L
354.232 364.4 L
354.666 364.304 L
355.1 364.206 L
355.534 364.108 L
355.968 364.009 L
356.402 363.908 L
356.836 363.807 L
357.27 363.704 L
357.704 363.601 L
358.138 363.496 L
358.572 363.391 L
359.006 363.284 L
359.44 363.176 L
359.874 363.068 L
360.308 362.958 L
360.742 362.847 L
361.176 362.735 L
361.61 362.621 L
362.044 362.507 L
362.478 362.392 L
362.912 362.275 L
363.346 362.157 L
363.78 362.038 L
364.214 361.918 L
364.648 361.796 L
365.082 361.674 L
365.516 361.55 L
365.95 361.425 L
366.384 361.298 L
366.818 361.171 L
367.252 361.042 L
367.686 360.911 L
368.12 360.78 L
368.554 360.647 L
368.988 360.513 L
369.422 360.377 L
369.856 360.24 L
370.29 360.102 L
370.724 359.962 L
371.158 359.821 L
371.592 359.679 L
372.026 359.535 L
372.46 359.39 L
372.894 359.243 L
373.328 359.094 L
373.762 358.945 L
374.196 358.793 L
374.63 358.641 L
375.064 358.486 L
375.498 358.33 L
375.932 358.173 L
376.366 358.014 L
376.8 357.853 L
377.234 357.691 L
377.668 357.527 L
378.102 357.361 L
378.536 357.194 L
378.97 357.025 L
379.404 356.855 L
379.838 356.682 L
380.272 356.508 L
380.706 356.332 L
381.14 356.155 L
381.574 355.975 L
382.008 355.794 L
382.442 355.611 L
382.876 355.427 L
383.31 355.24 L
383.744 355.051 L
384.178 354.861 L
384.612 354.669 L
385.046 354.474 L
385.48 354.278 L
385.914 354.08 L
386.348 353.88 L
386.782 353.677 L
387.216 353.473 L
387.65 353.267 L
388.084 353.059 L
388.518 352.848 L
388.952 352.635 L
389.386 352.421 L
389.82 352.204 L
390.254 351.985 L
390.688 351.764 L
391.122 351.54 L
391.556 351.314 L
391.99 351.086 L
392.424 350.856 L
392.858 350.623 L
393.292 350.389 L
393.726 350.151 L
394.16 349.912 L
394.594 349.669 L
395.028 349.425 L
395.462 349.178 L
395.896 348.928 L
396.33 348.676 L
396.764 348.422 L
397.198 348.165 L
397.632 347.905 L
398.066 347.643 L
398.5 347.378 L
398.934 347.111 L
399.368 346.84 L
399.802 346.567 L
400.236 346.292 L
400.67 346.013 L
401.104 345.732 L
401.538 345.448 L
401.972 345.161 L
402.406 344.871 L
402.84 344.578 L
403.274 344.283 L
403.708 343.984 L
404.142 343.682 L
404.576 343.378 L
405.01 343.07 L
405.444 342.759 L
405.878 342.445 L
406.312 342.128 L
406.746 341.808 L
407.18 341.484 L
407.614 341.157 L
408.048 340.827 L
408.482 340.494 L
408.916 340.157 L
409.35 339.817 L
409.784 339.473 L
410.218 339.126 L
410.652 338.776 L
411.086 338.422 L
411.52 338.064 L
411.954 337.703 L
412.388 337.338 L
412.822 336.97 L
413.256 336.598 L
413.69 336.222 L
414.124 335.842 L
414.558 335.459 L
414.992 335.071 L
415.426 334.68 L
415.86 334.285 L
416.294 333.886 L
416.728 333.483 L
417.162 333.075 L
417.596 332.664 L
418.03 332.249 L
418.464 331.829 L
418.898 331.405 L
419.332 330.977 L
419.766 330.545 L
420.2 330.108 L
420.634 329.667 L
421.068 329.221 L
421.502 328.771 L
421.936 328.317 L
422.37 327.858 L
422.804 327.394 L
423.238 326.925 L
423.672 326.452 L
424.106 325.974 L
424.54 325.492 L
424.974 325.004 L
425.408 324.512 L
425.842 324.014 L
426.276 323.512 L
426.71 323.005 L
427.144 322.492 L
427.578 321.975 L
428.012 321.452 L
428.446 320.924 L
428.88 320.39 L
429.314 319.851 L
429.748 319.307 L
430.182 318.757 L
430.616 318.202 L
431.05 317.642 L
431.484 317.075 L
431.918 316.503 L
432.352 315.925 L
432.786 315.341 L
433.22 314.752 L
433.654 314.156 L
434.088 313.555 L
434.522 312.948 L
434.956 312.334 L
435.39 311.714 L
435.824 311.088 L
436.258 310.456 L
436.692 309.817 L
437.126 309.172 L
437.56 308.521 L
437.994 307.863 L
438.428 307.198 L
438.862 306.527 L
439.296 305.849 L
439.73 305.164 L
440.164 304.472 L
440.598 303.773 L
441.032 303.067 L
441.466 302.354 L
441.9 301.634 L
442.334 300.907 L
442.768 300.172 L
443.202 299.43 L
443.636 298.681 L
444.07 297.924 L
444.504 297.159 L
444.938 296.387 L
445.372 295.607 L
445.806 294.819 L
446.24 294.023 L
446.674 293.22 L
447.108 292.408 L
447.542 291.588 L
447.976 290.76 L
448.41 289.923 L
448.844 289.078 L
449.278 288.225 L
449.712 287.362 L
450.146 286.492 L
450.58 285.612 L
451.014 284.724 L
451.448 283.827 L
451.882 282.92 L
452.316 282.005 L
452.75 281.081 L
453.184 280.147 L
453.618 279.203 L
454.052 278.251 L
454.486 277.288 L
454.92 276.316 L
455.354 275.335 L
455.788 274.343 L
456.222 273.342 L
456.656 272.33 L
457.09 271.308 L
457.524 270.276 L
457.958 269.234 L
458.392 268.181 L
458.826 267.117 L
459.26 266.043 L
459.694 264.958 L
460.128 263.862 L
460.562 262.755 L
460.996 261.637 L
461.43 260.508 L
461.864 259.367 L
462.298 258.215 L
462.732 257.052 L
463.166 255.876 L
463.6 254.689 L
464.034 253.49 L
464.468 252.279 L
464.902 251.055 L
465.336 249.82 L
465.77 248.572 L
466.204 247.311 L
466.638 246.038 L
467.072 244.752 L
467.506 243.453 L
467.94 242.141 L
468.374 240.816 L
468.808 239.477 L
469.242 238.125 L
469.676 236.76 L
470.11 235.38 L
470.544 233.987 L
470.978 232.58 L
471.412 231.159 L
471.846 229.723 L
472.28 228.273 L
472.714 226.809 L
473.148 225.329 L
473.582 223.835 L
474.016 222.326 L
474.45 220.802 L
474.884 219.262 L
475.318 217.707 L
475.752 216.136 L
476.186 214.55 L
476.62 212.947 L
477.054 211.328 L
477.488 209.694 L
477.922 208.042 L
478.356 206.374 L
478.79 204.69 L
479.224 202.988 L
479.658 201.269 L
480.092 199.533 L
480.526 197.78 L
480.96 196.009 L
481.394 194.22 L
481.828 192.413 L
482.262 190.588 L
482.696 188.745 L
483.13 186.883 L
483.564 185.003 L
483.998 183.103 L
484.432 181.185 L
484.866 179.247 L
485.3 177.289 L
485.734 175.313 L
486.168 173.316 L
486.602 171.299 L
487.036 169.262 L
487.47 167.204 L
487.904 165.126 L
488.338 163.026 L
488.772 160.906 L
489.206 158.764 L
489.64 156.601 L
490.074 154.416 L
490.508 152.21 L
490.942 149.98 L
491.376 147.729 L
491.81 145.455 L
492.244 143.158 L
492.678 140.838 L
493.112 138.495 L
493.546 136.128 L
493.98 133.737 L
494.414 131.323 L
494.848 128.884 L
495.282 126.42 L
495.716 123.932 L
496.15 121.419 L
496.584 118.88 L
497.018 116.316 L
497.452 113.726 L
497.886 111.111 L
498.32 108.469 L
498.754 105.8 L
499.188 103.105 L
499.622 100.382 L
500.056 97.632 L
500.49 94.854 L
500.924 92.049 L
501.358 89.215 L
501.792 86.353 L
502.226 83.462 L
502.66 80.542 L
503.094 77.593 L
503.528 74.614 L
503.962 71.605 L
504.396 68.566 L
504.83 65.497 L
505.264 62.396 L
505.698 59.264 L
506.132 56.101 L
506.566 52.906 L
507 374 L
S
GR
%%Trailer
%%Pages: 1
%%EOF
