%!PS-Adobe-3.0 EPSF-3.0
%%Creator: (MATLAB, The Mathworks, Inc. Version 9.10.0.1602886 \(R2021a\). Operating System: Mac OS X)
%%Title: /Users/shaimeg/src/isenkf/codes/Nadhir_code/WorkvsK.eps
%%CreationDate: 2021-11-22T12:08:26
%%Pages: (atend)
%%BoundingBox:     0     0   919   519
%%LanguageLevel: 3
%%EndComments
%%BeginProlog
%%BeginResource: procset (Apache XML Graphics Std ProcSet) 1.2 0
%%Version: 1.2 0
%%Copyright: (Copyright 2001-2003,2010 The Apache Software Foundation. License terms: http://www.apache.org/licenses/LICENSE-2.0)
/bd{bind def}bind def
/ld{load def}bd
/GR/grestore ld
/GS/gsave ld
/RM/rmoveto ld
/C/curveto ld
/t/show ld
/L/lineto ld
/ML/setmiterlimit ld
/CT/concat ld
/f/fill ld
/N/newpath ld
/S/stroke ld
/CC/setcmykcolor ld
/A/ashow ld
/cp/closepath ld
/RC/setrgbcolor ld
/LJ/setlinejoin ld
/GC/setgray ld
/LW/setlinewidth ld
/M/moveto ld
/re {4 2 roll M
1 index 0 rlineto
0 exch rlineto
neg 0 rlineto
cp } bd
/_ctm matrix def
/_tm matrix def
/BT { _ctm currentmatrix pop matrix _tm copy pop 0 0 moveto } bd
/ET { _ctm setmatrix } bd
/iTm { _ctm setmatrix _tm concat } bd
/Tm { _tm astore pop iTm 0 0 moveto } bd
/ux 0.0 def
/uy 0.0 def
/F {
  /Tp exch def
  /Tf exch def
  Tf findfont Tp scalefont setfont
  /cf Tf def  /cs Tp def
} bd
/ULS {currentpoint /uy exch def /ux exch def} bd
/ULE {
  /Tcx currentpoint pop def
  gsave
  newpath
  cf findfont cs scalefont dup
  /FontMatrix get 0 get /Ts exch def /FontInfo get dup
  /UnderlinePosition get Ts mul /To exch def
  /UnderlineThickness get Ts mul /Tt exch def
  ux uy To add moveto  Tcx uy To add lineto
  Tt setlinewidth stroke
  grestore
} bd
/OLE {
  /Tcx currentpoint pop def
  gsave
  newpath
  cf findfont cs scalefont dup
  /FontMatrix get 0 get /Ts exch def /FontInfo get dup
  /UnderlinePosition get Ts mul /To exch def
  /UnderlineThickness get Ts mul /Tt exch def
  ux uy To add cs add moveto Tcx uy To add cs add lineto
  Tt setlinewidth stroke
  grestore
} bd
/SOE {
  /Tcx currentpoint pop def
  gsave
  newpath
  cf findfont cs scalefont dup
  /FontMatrix get 0 get /Ts exch def /FontInfo get dup
  /UnderlinePosition get Ts mul /To exch def
  /UnderlineThickness get Ts mul /Tt exch def
  ux uy To add cs 10 mul 26 idiv add moveto Tcx uy To add cs 10 mul 26 idiv add lineto
  Tt setlinewidth stroke
  grestore
} bd
/QT {
/Y22 exch store
/X22 exch store
/Y21 exch store
/X21 exch store
currentpoint
/Y21 load 2 mul add 3 div exch
/X21 load 2 mul add 3 div exch
/X21 load 2 mul /X22 load add 3 div
/Y21 load 2 mul /Y22 load add 3 div
/X22 load /Y22 load curveto
} bd
/SSPD {
dup length /d exch dict def
{
/v exch def
/k exch def
currentpagedevice k known {
/cpdv currentpagedevice k get def
v cpdv ne {
/upd false def
/nullv v type /nulltype eq def
/nullcpdv cpdv type /nulltype eq def
nullv nullcpdv or
{
/upd true def
} {
/sametype v type cpdv type eq def
sametype {
v type /arraytype eq {
/vlen v length def
/cpdvlen cpdv length def
vlen cpdvlen eq {
0 1 vlen 1 sub {
/i exch def
/obj v i get def
/cpdobj cpdv i get def
obj cpdobj ne {
/upd true def
exit
} if
} for
} {
/upd true def
} ifelse
} {
v type /dicttype eq {
v {
/dv exch def
/dk exch def
/cpddv cpdv dk get def
dv cpddv ne {
/upd true def
exit
} if
} forall
} {
/upd true def
} ifelse
} ifelse
} if
} ifelse
upd true eq {
d k v put
} if
} if
} if
} forall
d length 0 gt {
d setpagedevice
} if
} bd
/RE { % /NewFontName [NewEncodingArray] /FontName RE -
  findfont dup length dict begin
  {
    1 index /FID ne
    {def} {pop pop} ifelse
  } forall
  /Encoding exch def
  /FontName 1 index def
  currentdict definefont pop
  end
} bind def
%%EndResource
%%BeginResource: procset (Apache XML Graphics EPS ProcSet) 1.0 0
%%Version: 1.0 0
%%Copyright: (Copyright 2002-2003 The Apache Software Foundation. License terms: http://www.apache.org/licenses/LICENSE-2.0)
/BeginEPSF { %def
/b4_Inc_state save def         % Save state for cleanup
/dict_count countdictstack def % Count objects on dict stack
/op_count count 1 sub def      % Count objects on operand stack
userdict begin                 % Push userdict on dict stack
/showpage { } def              % Redefine showpage, { } = null proc
0 setgray 0 setlinecap         % Prepare graphics state
1 setlinewidth 0 setlinejoin
10 setmiterlimit [ ] 0 setdash newpath
/languagelevel where           % If level not equal to 1 then
{pop languagelevel             % set strokeadjust and
1 ne                           % overprint to their defaults.
{false setstrokeadjust false setoverprint
} if
} if
} bd
/EndEPSF { %def
count op_count sub {pop} repeat            % Clean up stacks
countdictstack dict_count sub {end} repeat
b4_Inc_state restore
} bd
%%EndResource
%FOPBeginFontDict
%%IncludeResource: font Courier-Oblique
%%IncludeResource: font Courier-BoldOblique
%%IncludeResource: font Courier-Bold
%%IncludeResource: font ZapfDingbats
%%IncludeResource: font Symbol
%%IncludeResource: font Helvetica
%%IncludeResource: font Helvetica-Oblique
%%IncludeResource: font Helvetica-Bold
%%IncludeResource: font Helvetica-BoldOblique
%%IncludeResource: font Times-Roman
%%IncludeResource: font Times-Italic
%%IncludeResource: font Times-Bold
%%IncludeResource: font Times-BoldItalic
%%IncludeResource: font Courier
%FOPEndFontDict
%%BeginResource: encoding WinAnsiEncoding
/WinAnsiEncoding [
/.notdef /.notdef /.notdef /.notdef /.notdef
/.notdef /.notdef /.notdef /.notdef /.notdef
/.notdef /.notdef /.notdef /.notdef /.notdef
/.notdef /.notdef /.notdef /.notdef /.notdef
/.notdef /.notdef /.notdef /.notdef /.notdef
/.notdef /.notdef /.notdef /.notdef /.notdef
/.notdef /.notdef /space /exclam /quotedbl
/numbersign /dollar /percent /ampersand /quotesingle
/parenleft /parenright /asterisk /plus /comma
/hyphen /period /slash /zero /one
/two /three /four /five /six
/seven /eight /nine /colon /semicolon
/less /equal /greater /question /at
/A /B /C /D /E
/F /G /H /I /J
/K /L /M /N /O
/P /Q /R /S /T
/U /V /W /X /Y
/Z /bracketleft /backslash /bracketright /asciicircum
/underscore /quoteleft /a /b /c
/d /e /f /g /h
/i /j /k /l /m
/n /o /p /q /r
/s /t /u /v /w
/x /y /z /braceleft /bar
/braceright /asciitilde /bullet /Euro /bullet
/quotesinglbase /florin /quotedblbase /ellipsis /dagger
/daggerdbl /circumflex /perthousand /Scaron /guilsinglleft
/OE /bullet /Zcaron /bullet /bullet
/quoteleft /quoteright /quotedblleft /quotedblright /bullet
/endash /emdash /asciitilde /trademark /scaron
/guilsinglright /oe /bullet /zcaron /Ydieresis
/space /exclamdown /cent /sterling /currency
/yen /brokenbar /section /dieresis /copyright
/ordfeminine /guillemotleft /logicalnot /sfthyphen /registered
/macron /degree /plusminus /twosuperior /threesuperior
/acute /mu /paragraph /middot /cedilla
/onesuperior /ordmasculine /guillemotright /onequarter /onehalf
/threequarters /questiondown /Agrave /Aacute /Acircumflex
/Atilde /Adieresis /Aring /AE /Ccedilla
/Egrave /Eacute /Ecircumflex /Edieresis /Igrave
/Iacute /Icircumflex /Idieresis /Eth /Ntilde
/Ograve /Oacute /Ocircumflex /Otilde /Odieresis
/multiply /Oslash /Ugrave /Uacute /Ucircumflex
/Udieresis /Yacute /Thorn /germandbls /agrave
/aacute /acircumflex /atilde /adieresis /aring
/ae /ccedilla /egrave /eacute /ecircumflex
/edieresis /igrave /iacute /icircumflex /idieresis
/eth /ntilde /ograve /oacute /ocircumflex
/otilde /odieresis /divide /oslash /ugrave
/uacute /ucircumflex /udieresis /yacute /thorn
/ydieresis
] def
%%EndResource
%FOPBeginFontReencode
/Courier-Oblique findfont
dup length dict begin
  {1 index /FID ne {def} {pop pop} ifelse} forall
  /Encoding WinAnsiEncoding def
  currentdict
end
/Courier-Oblique exch definefont pop
/Courier-BoldOblique findfont
dup length dict begin
  {1 index /FID ne {def} {pop pop} ifelse} forall
  /Encoding WinAnsiEncoding def
  currentdict
end
/Courier-BoldOblique exch definefont pop
/Courier-Bold findfont
dup length dict begin
  {1 index /FID ne {def} {pop pop} ifelse} forall
  /Encoding WinAnsiEncoding def
  currentdict
end
/Courier-Bold exch definefont pop
/Helvetica findfont
dup length dict begin
  {1 index /FID ne {def} {pop pop} ifelse} forall
  /Encoding WinAnsiEncoding def
  currentdict
end
/Helvetica exch definefont pop
/Helvetica-Oblique findfont
dup length dict begin
  {1 index /FID ne {def} {pop pop} ifelse} forall
  /Encoding WinAnsiEncoding def
  currentdict
end
/Helvetica-Oblique exch definefont pop
/Helvetica-Bold findfont
dup length dict begin
  {1 index /FID ne {def} {pop pop} ifelse} forall
  /Encoding WinAnsiEncoding def
  currentdict
end
/Helvetica-Bold exch definefont pop
/Helvetica-BoldOblique findfont
dup length dict begin
  {1 index /FID ne {def} {pop pop} ifelse} forall
  /Encoding WinAnsiEncoding def
  currentdict
end
/Helvetica-BoldOblique exch definefont pop
/Times-Roman findfont
dup length dict begin
  {1 index /FID ne {def} {pop pop} ifelse} forall
  /Encoding WinAnsiEncoding def
  currentdict
end
/Times-Roman exch definefont pop
/Times-Italic findfont
dup length dict begin
  {1 index /FID ne {def} {pop pop} ifelse} forall
  /Encoding WinAnsiEncoding def
  currentdict
end
/Times-Italic exch definefont pop
/Times-Bold findfont
dup length dict begin
  {1 index /FID ne {def} {pop pop} ifelse} forall
  /Encoding WinAnsiEncoding def
  currentdict
end
/Times-Bold exch definefont pop
/Times-BoldItalic findfont
dup length dict begin
  {1 index /FID ne {def} {pop pop} ifelse} forall
  /Encoding WinAnsiEncoding def
  currentdict
end
/Times-BoldItalic exch definefont pop
/Courier findfont
dup length dict begin
  {1 index /FID ne {def} {pop pop} ifelse} forall
  /Encoding WinAnsiEncoding def
  currentdict
end
/Courier exch definefont pop
%FOPEndFontReencode
%%EndProlog
%%Page: 1 1
%%PageBoundingBox: 0 0 919 519
%%BeginPageSetup
[1 0 0 -1 0 519] CT
%%EndPageSetup
GS
1 GC
N
0 0 919 519 re
f
GR
GS
1 GC
N
0 0 919 519 re
f
GR
GS
1 GC
N
119.5 462 M
831.5 462 L
831.5 39 L
119.5 39 L
cp
f
GR
GS
0.149 GC
2 setlinecap
1 LJ
0.5 LW
N
119.5 462 M
831.5 462 L
S
GR
GS
0.149 GC
2 setlinecap
1 LJ
0.5 LW
N
119.5 39 M
831.5 39 L
S
GR
GS
0.149 GC
2 setlinecap
1 LJ
0.5 LW
N
119.5 462 M
119.5 454.88 L
S
GR
GS
0.149 GC
2 setlinecap
1 LJ
0.5 LW
N
238.167 462 M
238.167 454.88 L
S
GR
GS
0.149 GC
2 setlinecap
1 LJ
0.5 LW
N
356.833 462 M
356.833 454.88 L
S
GR
GS
0.149 GC
2 setlinecap
1 LJ
0.5 LW
N
475.5 462 M
475.5 454.88 L
S
GR
GS
0.149 GC
2 setlinecap
1 LJ
0.5 LW
N
594.167 462 M
594.167 454.88 L
S
GR
GS
0.149 GC
2 setlinecap
1 LJ
0.5 LW
N
712.833 462 M
712.833 454.88 L
S
GR
GS
0.149 GC
2 setlinecap
1 LJ
0.5 LW
N
831.5 462 M
831.5 454.88 L
S
GR
GS
0.149 GC
2 setlinecap
1 LJ
0.5 LW
N
119.5 39 M
119.5 46.12 L
S
GR
GS
0.149 GC
2 setlinecap
1 LJ
0.5 LW
N
238.167 39 M
238.167 46.12 L
S
GR
GS
0.149 GC
2 setlinecap
1 LJ
0.5 LW
N
356.833 39 M
356.833 46.12 L
S
GR
GS
0.149 GC
2 setlinecap
1 LJ
0.5 LW
N
475.5 39 M
475.5 46.12 L
S
GR
GS
0.149 GC
2 setlinecap
1 LJ
0.5 LW
N
594.167 39 M
594.167 46.12 L
S
GR
GS
0.149 GC
2 setlinecap
1 LJ
0.5 LW
N
712.833 39 M
712.833 46.12 L
S
GR
GS
0.149 GC
2 setlinecap
1 LJ
0.5 LW
N
831.5 39 M
831.5 46.12 L
S
GR
GS
[1 0 0 1 119.5 467] CT
0.149 GC
/Helvetica 15 F
GS
[1 0 0 1 0 0] CT
-4.5 15 moveto 
1 -1 scale
(1) t 
GR
GR
GS
[1 0 0 1 238.16667 467] CT
0.149 GC
/Helvetica 15 F
GS
[1 0 0 1 0 0] CT
-4.5 15 moveto 
1 -1 scale
(2) t 
GR
GR
GS
[1 0 0 1 356.83334 467] CT
0.149 GC
/Helvetica 15 F
GS
[1 0 0 1 0 0] CT
-4.5 15 moveto 
1 -1 scale
(3) t 
GR
GR
GS
[1 0 0 1 475.5 467] CT
0.149 GC
/Helvetica 15 F
GS
[1 0 0 1 0 0] CT
-4.5 15 moveto 
1 -1 scale
(4) t 
GR
GR
GS
[1 0 0 1 594.16669 467] CT
0.149 GC
/Helvetica 15 F
GS
[1 0 0 1 0 0] CT
-4.5 15 moveto 
1 -1 scale
(5) t 
GR
GR
GS
[1 0 0 1 712.83331 467] CT
0.149 GC
/Helvetica 15 F
GS
[1 0 0 1 0 0] CT
-4.5 15 moveto 
1 -1 scale
(6) t 
GR
GR
GS
[1 0 0 1 831.5 467] CT
0.149 GC
/Helvetica 15 F
GS
[1 0 0 1 0 0] CT
-4.5 15 moveto 
1 -1 scale
(7) t 
GR
GR
GS
[1 0 0 1 475.50034 486] CT
0.149 GC
/Helvetica 16.5 F
GS
[1 0 0 1 0 0] CT
-6 16 moveto 
1 -1 scale
(K) t 
GR
GR
GS
0.149 GC
2 setlinecap
1 LJ
0.5 LW
N
119.5 462 M
119.5 39 L
S
GR
GS
0.149 GC
2 setlinecap
1 LJ
0.5 LW
N
831.5 462 M
831.5 39 L
S
GR
GS
0.149 GC
2 setlinecap
1 LJ
0.5 LW
N
119.5 462 M
126.62 462 L
S
GR
GS
0.149 GC
2 setlinecap
1 LJ
0.5 LW
N
119.5 391.5 M
126.62 391.5 L
S
GR
GS
0.149 GC
2 setlinecap
1 LJ
0.5 LW
N
119.5 321 M
126.62 321 L
S
GR
GS
0.149 GC
2 setlinecap
1 LJ
0.5 LW
N
119.5 250.5 M
126.62 250.5 L
S
GR
GS
0.149 GC
2 setlinecap
1 LJ
0.5 LW
N
119.5 180 M
126.62 180 L
S
GR
GS
0.149 GC
2 setlinecap
1 LJ
0.5 LW
N
119.5 109.5 M
126.62 109.5 L
S
GR
GS
0.149 GC
2 setlinecap
1 LJ
0.5 LW
N
119.5 39 M
126.62 39 L
S
GR
GS
0.149 GC
2 setlinecap
1 LJ
0.5 LW
N
831.5 462 M
824.38 462 L
S
GR
GS
0.149 GC
2 setlinecap
1 LJ
0.5 LW
N
831.5 391.5 M
824.38 391.5 L
S
GR
GS
0.149 GC
2 setlinecap
1 LJ
0.5 LW
N
831.5 321 M
824.38 321 L
S
GR
GS
0.149 GC
2 setlinecap
1 LJ
0.5 LW
N
831.5 250.5 M
824.38 250.5 L
S
GR
GS
0.149 GC
2 setlinecap
1 LJ
0.5 LW
N
831.5 180 M
824.38 180 L
S
GR
GS
0.149 GC
2 setlinecap
1 LJ
0.5 LW
N
831.5 109.5 M
824.38 109.5 L
S
GR
GS
0.149 GC
2 setlinecap
1 LJ
0.5 LW
N
831.5 39 M
824.38 39 L
S
GR
GS
0.149 GC
2 setlinecap
1 LJ
0.5 LW
N
119.5 462 M
123.06 462 L
S
GR
GS
0.149 GC
2 setlinecap
1 LJ
0.5 LW
N
119.5 451.389 M
123.06 451.389 L
S
GR
GS
0.149 GC
2 setlinecap
1 LJ
0.5 LW
N
119.5 445.181 M
123.06 445.181 L
S
GR
GS
0.149 GC
2 setlinecap
1 LJ
0.5 LW
N
119.5 440.777 M
123.06 440.777 L
S
GR
GS
0.149 GC
2 setlinecap
1 LJ
0.5 LW
N
119.5 437.361 M
123.06 437.361 L
S
GR
GS
0.149 GC
2 setlinecap
1 LJ
0.5 LW
N
119.5 434.57 M
123.06 434.57 L
S
GR
GS
0.149 GC
2 setlinecap
1 LJ
0.5 LW
N
119.5 432.21 M
123.06 432.21 L
S
GR
GS
0.149 GC
2 setlinecap
1 LJ
0.5 LW
N
119.5 430.166 M
123.06 430.166 L
S
GR
GS
0.149 GC
2 setlinecap
1 LJ
0.5 LW
N
119.5 428.363 M
123.06 428.363 L
S
GR
GS
0.149 GC
2 setlinecap
1 LJ
0.5 LW
N
119.5 426.75 M
123.06 426.75 L
S
GR
GS
0.149 GC
2 setlinecap
1 LJ
0.5 LW
N
119.5 416.139 M
123.06 416.139 L
S
GR
GS
0.149 GC
2 setlinecap
1 LJ
0.5 LW
N
119.5 409.931 M
123.06 409.931 L
S
GR
GS
0.149 GC
2 setlinecap
1 LJ
0.5 LW
N
119.5 405.527 M
123.06 405.527 L
S
GR
GS
0.149 GC
2 setlinecap
1 LJ
0.5 LW
N
119.5 402.111 M
123.06 402.111 L
S
GR
GS
0.149 GC
2 setlinecap
1 LJ
0.5 LW
N
119.5 399.32 M
123.06 399.32 L
S
GR
GS
0.149 GC
2 setlinecap
1 LJ
0.5 LW
N
119.5 396.96 M
123.06 396.96 L
S
GR
GS
0.149 GC
2 setlinecap
1 LJ
0.5 LW
N
119.5 394.916 M
123.06 394.916 L
S
GR
GS
0.149 GC
2 setlinecap
1 LJ
0.5 LW
N
119.5 393.113 M
123.06 393.113 L
S
GR
GS
0.149 GC
2 setlinecap
1 LJ
0.5 LW
N
119.5 391.5 M
123.06 391.5 L
S
GR
GS
0.149 GC
2 setlinecap
1 LJ
0.5 LW
N
119.5 380.889 M
123.06 380.889 L
S
GR
GS
0.149 GC
2 setlinecap
1 LJ
0.5 LW
N
119.5 374.681 M
123.06 374.681 L
S
GR
GS
0.149 GC
2 setlinecap
1 LJ
0.5 LW
N
119.5 370.277 M
123.06 370.277 L
S
GR
GS
0.149 GC
2 setlinecap
1 LJ
0.5 LW
N
119.5 366.861 M
123.06 366.861 L
S
GR
GS
0.149 GC
2 setlinecap
1 LJ
0.5 LW
N
119.5 364.07 M
123.06 364.07 L
S
GR
GS
0.149 GC
2 setlinecap
1 LJ
0.5 LW
N
119.5 361.71 M
123.06 361.71 L
S
GR
GS
0.149 GC
2 setlinecap
1 LJ
0.5 LW
N
119.5 359.666 M
123.06 359.666 L
S
GR
GS
0.149 GC
2 setlinecap
1 LJ
0.5 LW
N
119.5 357.863 M
123.06 357.863 L
S
GR
GS
0.149 GC
2 setlinecap
1 LJ
0.5 LW
N
119.5 356.25 M
123.06 356.25 L
S
GR
GS
0.149 GC
2 setlinecap
1 LJ
0.5 LW
N
119.5 345.639 M
123.06 345.639 L
S
GR
GS
0.149 GC
2 setlinecap
1 LJ
0.5 LW
N
119.5 339.431 M
123.06 339.431 L
S
GR
GS
0.149 GC
2 setlinecap
1 LJ
0.5 LW
N
119.5 335.027 M
123.06 335.027 L
S
GR
GS
0.149 GC
2 setlinecap
1 LJ
0.5 LW
N
119.5 331.611 M
123.06 331.611 L
S
GR
GS
0.149 GC
2 setlinecap
1 LJ
0.5 LW
N
119.5 328.82 M
123.06 328.82 L
S
GR
GS
0.149 GC
2 setlinecap
1 LJ
0.5 LW
N
119.5 326.46 M
123.06 326.46 L
S
GR
GS
0.149 GC
2 setlinecap
1 LJ
0.5 LW
N
119.5 324.416 M
123.06 324.416 L
S
GR
GS
0.149 GC
2 setlinecap
1 LJ
0.5 LW
N
119.5 322.613 M
123.06 322.613 L
S
GR
GS
0.149 GC
2 setlinecap
1 LJ
0.5 LW
N
119.5 321 M
123.06 321 L
S
GR
GS
0.149 GC
2 setlinecap
1 LJ
0.5 LW
N
119.5 310.389 M
123.06 310.389 L
S
GR
GS
0.149 GC
2 setlinecap
1 LJ
0.5 LW
N
119.5 304.181 M
123.06 304.181 L
S
GR
GS
0.149 GC
2 setlinecap
1 LJ
0.5 LW
N
119.5 299.777 M
123.06 299.777 L
S
GR
GS
0.149 GC
2 setlinecap
1 LJ
0.5 LW
N
119.5 296.361 M
123.06 296.361 L
S
GR
GS
0.149 GC
2 setlinecap
1 LJ
0.5 LW
N
119.5 293.57 M
123.06 293.57 L
S
GR
GS
0.149 GC
2 setlinecap
1 LJ
0.5 LW
N
119.5 291.21 M
123.06 291.21 L
S
GR
GS
0.149 GC
2 setlinecap
1 LJ
0.5 LW
N
119.5 289.166 M
123.06 289.166 L
S
GR
GS
0.149 GC
2 setlinecap
1 LJ
0.5 LW
N
119.5 287.363 M
123.06 287.363 L
S
GR
GS
0.149 GC
2 setlinecap
1 LJ
0.5 LW
N
119.5 285.75 M
123.06 285.75 L
S
GR
GS
0.149 GC
2 setlinecap
1 LJ
0.5 LW
N
119.5 275.139 M
123.06 275.139 L
S
GR
GS
0.149 GC
2 setlinecap
1 LJ
0.5 LW
N
119.5 268.931 M
123.06 268.931 L
S
GR
GS
0.149 GC
2 setlinecap
1 LJ
0.5 LW
N
119.5 264.527 M
123.06 264.527 L
S
GR
GS
0.149 GC
2 setlinecap
1 LJ
0.5 LW
N
119.5 261.111 M
123.06 261.111 L
S
GR
GS
0.149 GC
2 setlinecap
1 LJ
0.5 LW
N
119.5 258.32 M
123.06 258.32 L
S
GR
GS
0.149 GC
2 setlinecap
1 LJ
0.5 LW
N
119.5 255.96 M
123.06 255.96 L
S
GR
GS
0.149 GC
2 setlinecap
1 LJ
0.5 LW
N
119.5 253.916 M
123.06 253.916 L
S
GR
GS
0.149 GC
2 setlinecap
1 LJ
0.5 LW
N
119.5 252.113 M
123.06 252.113 L
S
GR
GS
0.149 GC
2 setlinecap
1 LJ
0.5 LW
N
119.5 250.5 M
123.06 250.5 L
S
GR
GS
0.149 GC
2 setlinecap
1 LJ
0.5 LW
N
119.5 239.889 M
123.06 239.889 L
S
GR
GS
0.149 GC
2 setlinecap
1 LJ
0.5 LW
N
119.5 233.681 M
123.06 233.681 L
S
GR
GS
0.149 GC
2 setlinecap
1 LJ
0.5 LW
N
119.5 229.277 M
123.06 229.277 L
S
GR
GS
0.149 GC
2 setlinecap
1 LJ
0.5 LW
N
119.5 225.861 M
123.06 225.861 L
S
GR
GS
0.149 GC
2 setlinecap
1 LJ
0.5 LW
N
119.5 223.07 M
123.06 223.07 L
S
GR
GS
0.149 GC
2 setlinecap
1 LJ
0.5 LW
N
119.5 220.71 M
123.06 220.71 L
S
GR
GS
0.149 GC
2 setlinecap
1 LJ
0.5 LW
N
119.5 218.666 M
123.06 218.666 L
S
GR
GS
0.149 GC
2 setlinecap
1 LJ
0.5 LW
N
119.5 216.863 M
123.06 216.863 L
S
GR
GS
0.149 GC
2 setlinecap
1 LJ
0.5 LW
N
119.5 215.25 M
123.06 215.25 L
S
GR
GS
0.149 GC
2 setlinecap
1 LJ
0.5 LW
N
119.5 204.639 M
123.06 204.639 L
S
GR
GS
0.149 GC
2 setlinecap
1 LJ
0.5 LW
N
119.5 198.431 M
123.06 198.431 L
S
GR
GS
0.149 GC
2 setlinecap
1 LJ
0.5 LW
N
119.5 194.027 M
123.06 194.027 L
S
GR
GS
0.149 GC
2 setlinecap
1 LJ
0.5 LW
N
119.5 190.611 M
123.06 190.611 L
S
GR
GS
0.149 GC
2 setlinecap
1 LJ
0.5 LW
N
119.5 187.82 M
123.06 187.82 L
S
GR
GS
0.149 GC
2 setlinecap
1 LJ
0.5 LW
N
119.5 185.46 M
123.06 185.46 L
S
GR
GS
0.149 GC
2 setlinecap
1 LJ
0.5 LW
N
119.5 183.416 M
123.06 183.416 L
S
GR
GS
0.149 GC
2 setlinecap
1 LJ
0.5 LW
N
119.5 181.613 M
123.06 181.613 L
S
GR
GS
0.149 GC
2 setlinecap
1 LJ
0.5 LW
N
119.5 180 M
123.06 180 L
S
GR
GS
0.149 GC
2 setlinecap
1 LJ
0.5 LW
N
119.5 169.389 M
123.06 169.389 L
S
GR
GS
0.149 GC
2 setlinecap
1 LJ
0.5 LW
N
119.5 163.181 M
123.06 163.181 L
S
GR
GS
0.149 GC
2 setlinecap
1 LJ
0.5 LW
N
119.5 158.777 M
123.06 158.777 L
S
GR
GS
0.149 GC
2 setlinecap
1 LJ
0.5 LW
N
119.5 155.361 M
123.06 155.361 L
S
GR
GS
0.149 GC
2 setlinecap
1 LJ
0.5 LW
N
119.5 152.57 M
123.06 152.57 L
S
GR
GS
0.149 GC
2 setlinecap
1 LJ
0.5 LW
N
119.5 150.21 M
123.06 150.21 L
S
GR
GS
0.149 GC
2 setlinecap
1 LJ
0.5 LW
N
119.5 148.166 M
123.06 148.166 L
S
GR
GS
0.149 GC
2 setlinecap
1 LJ
0.5 LW
N
119.5 146.363 M
123.06 146.363 L
S
GR
GS
0.149 GC
2 setlinecap
1 LJ
0.5 LW
N
119.5 144.75 M
123.06 144.75 L
S
GR
GS
0.149 GC
2 setlinecap
1 LJ
0.5 LW
N
119.5 134.139 M
123.06 134.139 L
S
GR
GS
0.149 GC
2 setlinecap
1 LJ
0.5 LW
N
119.5 127.931 M
123.06 127.931 L
S
GR
GS
0.149 GC
2 setlinecap
1 LJ
0.5 LW
N
119.5 123.527 M
123.06 123.527 L
S
GR
GS
0.149 GC
2 setlinecap
1 LJ
0.5 LW
N
119.5 120.111 M
123.06 120.111 L
S
GR
GS
0.149 GC
2 setlinecap
1 LJ
0.5 LW
N
119.5 117.32 M
123.06 117.32 L
S
GR
GS
0.149 GC
2 setlinecap
1 LJ
0.5 LW
N
119.5 114.96 M
123.06 114.96 L
S
GR
GS
0.149 GC
2 setlinecap
1 LJ
0.5 LW
N
119.5 112.916 M
123.06 112.916 L
S
GR
GS
0.149 GC
2 setlinecap
1 LJ
0.5 LW
N
119.5 111.113 M
123.06 111.113 L
S
GR
GS
0.149 GC
2 setlinecap
1 LJ
0.5 LW
N
119.5 109.5 M
123.06 109.5 L
S
GR
GS
0.149 GC
2 setlinecap
1 LJ
0.5 LW
N
119.5 98.889 M
123.06 98.889 L
S
GR
GS
0.149 GC
2 setlinecap
1 LJ
0.5 LW
N
119.5 92.681 M
123.06 92.681 L
S
GR
GS
0.149 GC
2 setlinecap
1 LJ
0.5 LW
N
119.5 88.277 M
123.06 88.277 L
S
GR
GS
0.149 GC
2 setlinecap
1 LJ
0.5 LW
N
119.5 84.861 M
123.06 84.861 L
S
GR
GS
0.149 GC
2 setlinecap
1 LJ
0.5 LW
N
119.5 82.07 M
123.06 82.07 L
S
GR
GS
0.149 GC
2 setlinecap
1 LJ
0.5 LW
N
119.5 79.71 M
123.06 79.71 L
S
GR
GS
0.149 GC
2 setlinecap
1 LJ
0.5 LW
N
119.5 77.666 M
123.06 77.666 L
S
GR
GS
0.149 GC
2 setlinecap
1 LJ
0.5 LW
N
119.5 75.863 M
123.06 75.863 L
S
GR
GS
0.149 GC
2 setlinecap
1 LJ
0.5 LW
N
119.5 74.25 M
123.06 74.25 L
S
GR
GS
0.149 GC
2 setlinecap
1 LJ
0.5 LW
N
119.5 63.639 M
123.06 63.639 L
S
GR
GS
0.149 GC
2 setlinecap
1 LJ
0.5 LW
N
119.5 57.431 M
123.06 57.431 L
S
GR
GS
0.149 GC
2 setlinecap
1 LJ
0.5 LW
N
119.5 53.027 M
123.06 53.027 L
S
GR
GS
0.149 GC
2 setlinecap
1 LJ
0.5 LW
N
119.5 49.611 M
123.06 49.611 L
S
GR
GS
0.149 GC
2 setlinecap
1 LJ
0.5 LW
N
119.5 46.82 M
123.06 46.82 L
S
GR
GS
0.149 GC
2 setlinecap
1 LJ
0.5 LW
N
119.5 44.46 M
123.06 44.46 L
S
GR
GS
0.149 GC
2 setlinecap
1 LJ
0.5 LW
N
119.5 42.416 M
123.06 42.416 L
S
GR
GS
0.149 GC
2 setlinecap
1 LJ
0.5 LW
N
119.5 40.613 M
123.06 40.613 L
S
GR
GS
0.149 GC
2 setlinecap
1 LJ
0.5 LW
N
119.5 39 M
123.06 39 L
S
GR
GS
0.149 GC
2 setlinecap
1 LJ
0.5 LW
N
831.5 462 M
827.94 462 L
S
GR
GS
0.149 GC
2 setlinecap
1 LJ
0.5 LW
N
831.5 451.389 M
827.94 451.389 L
S
GR
GS
0.149 GC
2 setlinecap
1 LJ
0.5 LW
N
831.5 445.181 M
827.94 445.181 L
S
GR
GS
0.149 GC
2 setlinecap
1 LJ
0.5 LW
N
831.5 440.777 M
827.94 440.777 L
S
GR
GS
0.149 GC
2 setlinecap
1 LJ
0.5 LW
N
831.5 437.361 M
827.94 437.361 L
S
GR
GS
0.149 GC
2 setlinecap
1 LJ
0.5 LW
N
831.5 434.57 M
827.94 434.57 L
S
GR
GS
0.149 GC
2 setlinecap
1 LJ
0.5 LW
N
831.5 432.21 M
827.94 432.21 L
S
GR
GS
0.149 GC
2 setlinecap
1 LJ
0.5 LW
N
831.5 430.166 M
827.94 430.166 L
S
GR
GS
0.149 GC
2 setlinecap
1 LJ
0.5 LW
N
831.5 428.363 M
827.94 428.363 L
S
GR
GS
0.149 GC
2 setlinecap
1 LJ
0.5 LW
N
831.5 426.75 M
827.94 426.75 L
S
GR
GS
0.149 GC
2 setlinecap
1 LJ
0.5 LW
N
831.5 416.139 M
827.94 416.139 L
S
GR
GS
0.149 GC
2 setlinecap
1 LJ
0.5 LW
N
831.5 409.931 M
827.94 409.931 L
S
GR
GS
0.149 GC
2 setlinecap
1 LJ
0.5 LW
N
831.5 405.527 M
827.94 405.527 L
S
GR
GS
0.149 GC
2 setlinecap
1 LJ
0.5 LW
N
831.5 402.111 M
827.94 402.111 L
S
GR
GS
0.149 GC
2 setlinecap
1 LJ
0.5 LW
N
831.5 399.32 M
827.94 399.32 L
S
GR
GS
0.149 GC
2 setlinecap
1 LJ
0.5 LW
N
831.5 396.96 M
827.94 396.96 L
S
GR
GS
0.149 GC
2 setlinecap
1 LJ
0.5 LW
N
831.5 394.916 M
827.94 394.916 L
S
GR
GS
0.149 GC
2 setlinecap
1 LJ
0.5 LW
N
831.5 393.113 M
827.94 393.113 L
S
GR
GS
0.149 GC
2 setlinecap
1 LJ
0.5 LW
N
831.5 391.5 M
827.94 391.5 L
S
GR
GS
0.149 GC
2 setlinecap
1 LJ
0.5 LW
N
831.5 380.889 M
827.94 380.889 L
S
GR
GS
0.149 GC
2 setlinecap
1 LJ
0.5 LW
N
831.5 374.681 M
827.94 374.681 L
S
GR
GS
0.149 GC
2 setlinecap
1 LJ
0.5 LW
N
831.5 370.277 M
827.94 370.277 L
S
GR
GS
0.149 GC
2 setlinecap
1 LJ
0.5 LW
N
831.5 366.861 M
827.94 366.861 L
S
GR
GS
0.149 GC
2 setlinecap
1 LJ
0.5 LW
N
831.5 364.07 M
827.94 364.07 L
S
GR
GS
0.149 GC
2 setlinecap
1 LJ
0.5 LW
N
831.5 361.71 M
827.94 361.71 L
S
GR
GS
0.149 GC
2 setlinecap
1 LJ
0.5 LW
N
831.5 359.666 M
827.94 359.666 L
S
GR
GS
0.149 GC
2 setlinecap
1 LJ
0.5 LW
N
831.5 357.863 M
827.94 357.863 L
S
GR
GS
0.149 GC
2 setlinecap
1 LJ
0.5 LW
N
831.5 356.25 M
827.94 356.25 L
S
GR
GS
0.149 GC
2 setlinecap
1 LJ
0.5 LW
N
831.5 345.639 M
827.94 345.639 L
S
GR
GS
0.149 GC
2 setlinecap
1 LJ
0.5 LW
N
831.5 339.431 M
827.94 339.431 L
S
GR
GS
0.149 GC
2 setlinecap
1 LJ
0.5 LW
N
831.5 335.027 M
827.94 335.027 L
S
GR
GS
0.149 GC
2 setlinecap
1 LJ
0.5 LW
N
831.5 331.611 M
827.94 331.611 L
S
GR
GS
0.149 GC
2 setlinecap
1 LJ
0.5 LW
N
831.5 328.82 M
827.94 328.82 L
S
GR
GS
0.149 GC
2 setlinecap
1 LJ
0.5 LW
N
831.5 326.46 M
827.94 326.46 L
S
GR
GS
0.149 GC
2 setlinecap
1 LJ
0.5 LW
N
831.5 324.416 M
827.94 324.416 L
S
GR
GS
0.149 GC
2 setlinecap
1 LJ
0.5 LW
N
831.5 322.613 M
827.94 322.613 L
S
GR
GS
0.149 GC
2 setlinecap
1 LJ
0.5 LW
N
831.5 321 M
827.94 321 L
S
GR
GS
0.149 GC
2 setlinecap
1 LJ
0.5 LW
N
831.5 310.389 M
827.94 310.389 L
S
GR
GS
0.149 GC
2 setlinecap
1 LJ
0.5 LW
N
831.5 304.181 M
827.94 304.181 L
S
GR
GS
0.149 GC
2 setlinecap
1 LJ
0.5 LW
N
831.5 299.777 M
827.94 299.777 L
S
GR
GS
0.149 GC
2 setlinecap
1 LJ
0.5 LW
N
831.5 296.361 M
827.94 296.361 L
S
GR
GS
0.149 GC
2 setlinecap
1 LJ
0.5 LW
N
831.5 293.57 M
827.94 293.57 L
S
GR
GS
0.149 GC
2 setlinecap
1 LJ
0.5 LW
N
831.5 291.21 M
827.94 291.21 L
S
GR
GS
0.149 GC
2 setlinecap
1 LJ
0.5 LW
N
831.5 289.166 M
827.94 289.166 L
S
GR
GS
0.149 GC
2 setlinecap
1 LJ
0.5 LW
N
831.5 287.363 M
827.94 287.363 L
S
GR
GS
0.149 GC
2 setlinecap
1 LJ
0.5 LW
N
831.5 285.75 M
827.94 285.75 L
S
GR
GS
0.149 GC
2 setlinecap
1 LJ
0.5 LW
N
831.5 275.139 M
827.94 275.139 L
S
GR
GS
0.149 GC
2 setlinecap
1 LJ
0.5 LW
N
831.5 268.931 M
827.94 268.931 L
S
GR
GS
0.149 GC
2 setlinecap
1 LJ
0.5 LW
N
831.5 264.527 M
827.94 264.527 L
S
GR
GS
0.149 GC
2 setlinecap
1 LJ
0.5 LW
N
831.5 261.111 M
827.94 261.111 L
S
GR
GS
0.149 GC
2 setlinecap
1 LJ
0.5 LW
N
831.5 258.32 M
827.94 258.32 L
S
GR
GS
0.149 GC
2 setlinecap
1 LJ
0.5 LW
N
831.5 255.96 M
827.94 255.96 L
S
GR
GS
0.149 GC
2 setlinecap
1 LJ
0.5 LW
N
831.5 253.916 M
827.94 253.916 L
S
GR
GS
0.149 GC
2 setlinecap
1 LJ
0.5 LW
N
831.5 252.113 M
827.94 252.113 L
S
GR
GS
0.149 GC
2 setlinecap
1 LJ
0.5 LW
N
831.5 250.5 M
827.94 250.5 L
S
GR
GS
0.149 GC
2 setlinecap
1 LJ
0.5 LW
N
831.5 239.889 M
827.94 239.889 L
S
GR
GS
0.149 GC
2 setlinecap
1 LJ
0.5 LW
N
831.5 233.681 M
827.94 233.681 L
S
GR
GS
0.149 GC
2 setlinecap
1 LJ
0.5 LW
N
831.5 229.277 M
827.94 229.277 L
S
GR
GS
0.149 GC
2 setlinecap
1 LJ
0.5 LW
N
831.5 225.861 M
827.94 225.861 L
S
GR
GS
0.149 GC
2 setlinecap
1 LJ
0.5 LW
N
831.5 223.07 M
827.94 223.07 L
S
GR
GS
0.149 GC
2 setlinecap
1 LJ
0.5 LW
N
831.5 220.71 M
827.94 220.71 L
S
GR
GS
0.149 GC
2 setlinecap
1 LJ
0.5 LW
N
831.5 218.666 M
827.94 218.666 L
S
GR
GS
0.149 GC
2 setlinecap
1 LJ
0.5 LW
N
831.5 216.863 M
827.94 216.863 L
S
GR
GS
0.149 GC
2 setlinecap
1 LJ
0.5 LW
N
831.5 215.25 M
827.94 215.25 L
S
GR
GS
0.149 GC
2 setlinecap
1 LJ
0.5 LW
N
831.5 204.639 M
827.94 204.639 L
S
GR
GS
0.149 GC
2 setlinecap
1 LJ
0.5 LW
N
831.5 198.431 M
827.94 198.431 L
S
GR
GS
0.149 GC
2 setlinecap
1 LJ
0.5 LW
N
831.5 194.027 M
827.94 194.027 L
S
GR
GS
0.149 GC
2 setlinecap
1 LJ
0.5 LW
N
831.5 190.611 M
827.94 190.611 L
S
GR
GS
0.149 GC
2 setlinecap
1 LJ
0.5 LW
N
831.5 187.82 M
827.94 187.82 L
S
GR
GS
0.149 GC
2 setlinecap
1 LJ
0.5 LW
N
831.5 185.46 M
827.94 185.46 L
S
GR
GS
0.149 GC
2 setlinecap
1 LJ
0.5 LW
N
831.5 183.416 M
827.94 183.416 L
S
GR
GS
0.149 GC
2 setlinecap
1 LJ
0.5 LW
N
831.5 181.613 M
827.94 181.613 L
S
GR
GS
0.149 GC
2 setlinecap
1 LJ
0.5 LW
N
831.5 180 M
827.94 180 L
S
GR
GS
0.149 GC
2 setlinecap
1 LJ
0.5 LW
N
831.5 169.389 M
827.94 169.389 L
S
GR
GS
0.149 GC
2 setlinecap
1 LJ
0.5 LW
N
831.5 163.181 M
827.94 163.181 L
S
GR
GS
0.149 GC
2 setlinecap
1 LJ
0.5 LW
N
831.5 158.777 M
827.94 158.777 L
S
GR
GS
0.149 GC
2 setlinecap
1 LJ
0.5 LW
N
831.5 155.361 M
827.94 155.361 L
S
GR
GS
0.149 GC
2 setlinecap
1 LJ
0.5 LW
N
831.5 152.57 M
827.94 152.57 L
S
GR
GS
0.149 GC
2 setlinecap
1 LJ
0.5 LW
N
831.5 150.21 M
827.94 150.21 L
S
GR
GS
0.149 GC
2 setlinecap
1 LJ
0.5 LW
N
831.5 148.166 M
827.94 148.166 L
S
GR
GS
0.149 GC
2 setlinecap
1 LJ
0.5 LW
N
831.5 146.363 M
827.94 146.363 L
S
GR
GS
0.149 GC
2 setlinecap
1 LJ
0.5 LW
N
831.5 144.75 M
827.94 144.75 L
S
GR
GS
0.149 GC
2 setlinecap
1 LJ
0.5 LW
N
831.5 134.139 M
827.94 134.139 L
S
GR
GS
0.149 GC
2 setlinecap
1 LJ
0.5 LW
N
831.5 127.931 M
827.94 127.931 L
S
GR
GS
0.149 GC
2 setlinecap
1 LJ
0.5 LW
N
831.5 123.527 M
827.94 123.527 L
S
GR
GS
0.149 GC
2 setlinecap
1 LJ
0.5 LW
N
831.5 120.111 M
827.94 120.111 L
S
GR
GS
0.149 GC
2 setlinecap
1 LJ
0.5 LW
N
831.5 117.32 M
827.94 117.32 L
S
GR
GS
0.149 GC
2 setlinecap
1 LJ
0.5 LW
N
831.5 114.96 M
827.94 114.96 L
S
GR
GS
0.149 GC
2 setlinecap
1 LJ
0.5 LW
N
831.5 112.916 M
827.94 112.916 L
S
GR
GS
0.149 GC
2 setlinecap
1 LJ
0.5 LW
N
831.5 111.113 M
827.94 111.113 L
S
GR
GS
0.149 GC
2 setlinecap
1 LJ
0.5 LW
N
831.5 109.5 M
827.94 109.5 L
S
GR
GS
0.149 GC
2 setlinecap
1 LJ
0.5 LW
N
831.5 98.889 M
827.94 98.889 L
S
GR
GS
0.149 GC
2 setlinecap
1 LJ
0.5 LW
N
831.5 92.681 M
827.94 92.681 L
S
GR
GS
0.149 GC
2 setlinecap
1 LJ
0.5 LW
N
831.5 88.277 M
827.94 88.277 L
S
GR
GS
0.149 GC
2 setlinecap
1 LJ
0.5 LW
N
831.5 84.861 M
827.94 84.861 L
S
GR
GS
0.149 GC
2 setlinecap
1 LJ
0.5 LW
N
831.5 82.07 M
827.94 82.07 L
S
GR
GS
0.149 GC
2 setlinecap
1 LJ
0.5 LW
N
831.5 79.71 M
827.94 79.71 L
S
GR
GS
0.149 GC
2 setlinecap
1 LJ
0.5 LW
N
831.5 77.666 M
827.94 77.666 L
S
GR
GS
0.149 GC
2 setlinecap
1 LJ
0.5 LW
N
831.5 75.863 M
827.94 75.863 L
S
GR
GS
0.149 GC
2 setlinecap
1 LJ
0.5 LW
N
831.5 74.25 M
827.94 74.25 L
S
GR
GS
0.149 GC
2 setlinecap
1 LJ
0.5 LW
N
831.5 63.639 M
827.94 63.639 L
S
GR
GS
0.149 GC
2 setlinecap
1 LJ
0.5 LW
N
831.5 57.431 M
827.94 57.431 L
S
GR
GS
0.149 GC
2 setlinecap
1 LJ
0.5 LW
N
831.5 53.027 M
827.94 53.027 L
S
GR
GS
0.149 GC
2 setlinecap
1 LJ
0.5 LW
N
831.5 49.611 M
827.94 49.611 L
S
GR
GS
0.149 GC
2 setlinecap
1 LJ
0.5 LW
N
831.5 46.82 M
827.94 46.82 L
S
GR
GS
0.149 GC
2 setlinecap
1 LJ
0.5 LW
N
831.5 44.46 M
827.94 44.46 L
S
GR
GS
0.149 GC
2 setlinecap
1 LJ
0.5 LW
N
831.5 42.416 M
827.94 42.416 L
S
GR
GS
0.149 GC
2 setlinecap
1 LJ
0.5 LW
N
831.5 40.613 M
827.94 40.613 L
S
GR
GS
0.149 GC
2 setlinecap
1 LJ
0.5 LW
N
831.5 39 M
827.94 39 L
S
GR
GS
[1 0 0 1 91 470] CT
0.149 GC
/Helvetica 15 F
GS
[1 0 0 1 0 0] CT
0 0 moveto 
1 -1 scale
(10) t 
GR
GR
GS
[1 0 0 1 108 463] CT
0.149 GC
/Helvetica 12 F
GS
[1 0 0 1 0 0] CT
0 0 moveto 
1 -1 scale
(2) t 
GR
GR
GS
[1 0 0 1 91 400] CT
0.149 GC
/Helvetica 15 F
GS
[1 0 0 1 0 0] CT
0 0 moveto 
1 -1 scale
(10) t 
GR
GR
GS
[1 0 0 1 108 393] CT
0.149 GC
/Helvetica 12 F
GS
[1 0 0 1 0 0] CT
0 0 moveto 
1 -1 scale
(4) t 
GR
GR
GS
[1 0 0 1 91 329] CT
0.149 GC
/Helvetica 15 F
GS
[1 0 0 1 0 0] CT
0 0 moveto 
1 -1 scale
(10) t 
GR
GR
GS
[1 0 0 1 108 322] CT
0.149 GC
/Helvetica 12 F
GS
[1 0 0 1 0 0] CT
0 0 moveto 
1 -1 scale
(6) t 
GR
GR
GS
[1 0 0 1 91 259] CT
0.149 GC
/Helvetica 15 F
GS
[1 0 0 1 0 0] CT
0 0 moveto 
1 -1 scale
(10) t 
GR
GR
GS
[1 0 0 1 108 252] CT
0.149 GC
/Helvetica 12 F
GS
[1 0 0 1 0 0] CT
0 0 moveto 
1 -1 scale
(8) t 
GR
GR
GS
[1 0 0 1 84 188] CT
0.149 GC
/Helvetica 15 F
GS
[1 0 0 1 0 0] CT
0 0 moveto 
1 -1 scale
(10) t 
GR
GR
GS
[1 0 0 1 101 181] CT
0.149 GC
/Helvetica 12 F
GS
[1 0 0 1 0 0] CT
0 0 moveto 
1 -1 scale
(10) t 
GR
GR
GS
[1 0 0 1 84 118] CT
0.149 GC
/Helvetica 15 F
GS
[1 0 0 1 0 0] CT
0 0 moveto 
1 -1 scale
(10) t 
GR
GR
GS
[1 0 0 1 101 111] CT
0.149 GC
/Helvetica 12 F
GS
[1 0 0 1 0 0] CT
0 0 moveto 
1 -1 scale
(12) t 
GR
GR
GS
[1 0 0 1 84 47] CT
0.149 GC
/Helvetica 15 F
GS
[1 0 0 1 0 0] CT
0 0 moveto 
1 -1 scale
(10) t 
GR
GR
GS
[1 0 0 1 101 40] CT
0.149 GC
/Helvetica 12 F
GS
[1 0 0 1 0 0] CT
0 0 moveto 
1 -1 scale
(14) t 
GR
GR
GS
[0 -1 1 0 81 250.4998] CT
0.149 GC
/Helvetica 16.5 F
GS
[1 0 0 1 0 0] CT
-19.5 -4 moveto 
1 -1 scale
(Work) t 
GR
GR
GS
1 0 0 RC
1 LJ
2 LW
N
119.5 417.461 M
178.833 413.143 L
238.167 405.31 L
297.5 393.375 L
356.833 377.024 L
416.167 357.022 L
475.5 333.37 L
534.833 309.153 L
594.167 278.573 L
653.5 244.653 L
712.833 200.397 L
772.167 159.949 L
831.5 108.759 L
S
GR
GS
0 0 1 RC
1 LJ
2 LW
N
119.5 440.433 M
178.833 431.791 L
238.167 419.121 L
297.5 406.782 L
356.833 395.605 L
416.167 383.756 L
475.5 372.927 L
534.833 362.382 L
594.167 351.412 L
653.5 338.907 L
712.833 321.952 L
772.167 307.339 L
831.5 286.828 L
S
GR
GS
1 GC
N
823.5 83.5 M
823.5 47 L
720 47 L
720 83.5 L
cp
f
GR
GS
[1 0 0 1 757 57] CT
/Helvetica 13.5 F
GS
[1 0 0 1 0 0] CT
0 5 moveto 
1 -1 scale
(Crude MC) t 
GR
GR
GS
1 0 0 RC
1 LJ
2 LW
N
724 57 M
754 57 L
S
GR
GS
[1 0 0 1 757 73.5] CT
/Helvetica 13.5 F
GS
[1 0 0 1 0 0] CT
0 5 moveto 
1 -1 scale
(with IS) t 
GR
GR
GS
0 0 1 RC
1 LJ
2 LW
N
724 73.5 M
754 73.5 L
S
GR
GS
0.149 GC
10.0 ML
0.5 LW
N
720 83.5 M
720 47 L
823.5 47 L
823.5 83.5 L
cp
S
GR
%%Trailer
%%Pages: 1
%%EOF
